{
  "command" : "chkp-clish-show_users",
  "metrics" : [ {
    "tags" : {
      "im.metric-type" : "runtime",
      "im.name" : "users"
    },
    "value" : [ {
      "username" : "indeni"
    }, {
      "username" : "admin"
    }, {
      "username" : "monitor"
    } ]
  } ]
}
