{
  "command" : "f5-geo-ip-lookup",
  "metrics" : [ {
    "tags" : {
      "database" : "/shared/GeoIP/F5GeoIP.dat",
      "im.dstype" : "gauge",
      "im.dstype.displaytype" : "state",
      "im.metric-type" : "ts",
      "im.name" : "geoip-database-state",
      "im.step" : "1440"
    },
    "values" : [ "1.0" ]
  }, {
    "tags" : {
      "database" : "/shared/GeoIP/F5GeoIP.dat",
      "im.dstype" : "gauge",
      "im.dstype.displaytype" : "date",
      "im.metric-type" : "ts",
      "im.name" : "geoip-database-version",
      "im.step" : "1440"
    },
    "values" : [ "1.4809788E9" ]
  }, {
    "tags" : {
      "database" : "/shared/GeoIP/F5GeoIPISP.dat",
      "im.dstype" : "gauge",
      "im.dstype.displaytype" : "state",
      "im.metric-type" : "ts",
      "im.name" : "geoip-database-state",
      "im.step" : "1440"
    },
    "values" : [ "1.0" ]
  }, {
    "tags" : {
      "database" : "/shared/GeoIP/F5GeoIPOrg.dat",
      "im.dstype" : "gauge",
      "im.dstype.displaytype" : "state",
      "im.metric-type" : "ts",
      "im.name" : "geoip-database-state",
      "im.step" : "1440"
    },
    "values" : [ "0.0" ]
  }, {
    "tags" : {
      "database" : "/shared/GeoIP/F5GeoIPRegion2.dat",
      "im.dstype" : "gauge",
      "im.dstype.displaytype" : "state",
      "im.metric-type" : "ts",
      "im.name" : "geoip-database-state",
      "im.step" : "1440"
    },
    "values" : [ "0.0" ]
  }, {
    "tags" : {
      "database" : "/shared/GeoIP/F5GeoIPv6.dat",
      "im.dstype" : "gauge",
      "im.dstype.displaytype" : "state",
      "im.metric-type" : "ts",
      "im.name" : "geoip-database-state",
      "im.step" : "1440"
    },
    "values" : [ "1.0" ]
  }, {
    "tags" : {
      "database" : "/shared/GeoIP/F5GeoIPISP.dat",
      "im.dstype" : "gauge",
      "im.dstype.displaytype" : "date",
      "im.metric-type" : "ts",
      "im.name" : "geoip-database-version",
      "im.step" : "1440"
    },
    "values" : [ "1.4809788E9" ]
  }, {
    "tags" : {
      "database" : "/shared/GeoIP/F5GeoIPOrg.dat",
      "im.dstype" : "gauge",
      "im.dstype.displaytype" : "date",
      "im.metric-type" : "ts",
      "im.name" : "geoip-database-version",
      "im.step" : "1440"
    },
    "values" : [ "1.4809788E9" ]
  }, {
    "tags" : {
      "database" : "/shared/GeoIP/F5GeoIPv6.dat",
      "im.dstype" : "gauge",
      "im.dstype.displaytype" : "date",
      "im.metric-type" : "ts",
      "im.name" : "geoip-database-version",
      "im.step" : "1440"
    },
    "values" : [ "1.4809788E9" ]
  } ]
}
