{
  "command" : "f5-ls-l-var-core",
  "metrics" : [ {
    "tags" : {
      "im.metric-type" : "runtime",
      "im.name" : "core-dumps"
    },
    "value" : [ {
      "created" : "1489735080",
      "path" : "/var/coretest2.core.gz"
    }, {
      "created" : "1489734960",
      "path" : "/var/coretest.core.gz"
    } ]
  } ]
}
