{
  "command" : "f5-rest-mgmt-tm-ltm-snatpool-stats",
  "metrics" : [ {
    "tags" : {
      "im.name" : "lb-snatpool-usage",
      "name" : "/Common/SNATTest"
    },
    "value" : "2.0"
  }, {
    "tags" : {
      "im.name" : "lb-snatpool-usage",
      "name" : "/Common/SNAT_Pool1"
    },
    "value" : "193000.0"
  }, {
    "tags" : {
      "im.name" : "lb-snatpool-usage",
      "name" : "/Common/SNAT_Pool2"
    },
    "value" : "500.0"
  } ]
}
