{
  "command" : "f5-rest-mgmt-tm-ltm-profile-web-acceleration-stats",
  "metrics" : [ {
    "tags" : {
      "im.dstype.displaytype" : "number",
      "im.name" : "f5-ramcache-items-misses",
      "name" : "/Anotherpartition/yetanotherwebaccelerationprofile"
    },
    "value" : "2.3575347E7"
  }, {
    "tags" : {
      "im.dstype" : "counter",
      "im.dstype.displaytype" : "kilobytes",
      "im.name" : "f5-ramcache-size-all-misses",
      "name" : "/Anotherpartition/yetanotherwebaccelerationprofile"
    },
    "value" : "1.43069E10"
  }, {
    "tags" : {
      "im.dstype" : "counter",
      "im.dstype.displaytype" : "kilobytes",
      "im.name" : "f5-ramcache-size-hits",
      "name" : "/Anotherpartition/yetanotherwebaccelerationprofile"
    },
    "value" : "1.27243E8"
  }, {
    "tags" : {
      "im.dstype" : "counter",
      "im.dstype.displaytype" : "kilobytes",
      "im.name" : "f5-ramcache-size-misses",
      "name" : "/Anotherpartition/awebaccelerationprofile"
    },
    "value" : "265798.0"
  }, {
    "tags" : {
      "im.dstype" : "counter",
      "im.dstype.displaytype" : "kilobytes",
      "im.name" : "f5-ramcache-size-misses",
      "name" : "/Anotherpartition/yetanotherwebaccelerationprofile"
    },
    "value" : "23575.3"
  }, {
    "tags" : {
      "im.dstype" : "counter",
      "im.dstype.displaytype" : "number",
      "im.name" : "f5-ramcache-items-all-misses",
      "name" : "/Anotherpartition/awebaccelerationprofile"
    },
    "value" : "1.430694133E9"
  }, {
    "tags" : {
      "im.dstype" : "counter",
      "im.dstype.displaytype" : "number",
      "im.name" : "f5-ramcache-items-all-misses",
      "name" : "/Anotherpartition/yetanotherwebaccelerationprofile"
    },
    "value" : "1.4306942344133E13"
  }, {
    "tags" : {
      "im.dstype.displaytype" : "number",
      "im.name" : "f5-ramcache-items-misses",
      "name" : "/Anotherpartition/awebaccelerationprofile"
    },
    "value" : "2.65798076E8"
  }, {
    "tags" : {
      "im.dstype" : "counter",
      "im.dstype.displaytype" : "number",
      "im.name" : "f5-ramcache-items-hits",
      "name" : "/Anotherpartition/awebaccelerationprofile"
    },
    "value" : "5.08090516E8"
  }, {
    "tags" : {
      "im.dstype" : "counter",
      "im.dstype.displaytype" : "number",
      "im.name" : "f5-ramcache-items-hits",
      "name" : "/Anotherpartition/yetanotherwebaccelerationprofile"
    },
    "value" : "6345748.0"
  }, {
    "tags" : {
      "im.dstype" : "counter",
      "im.dstype.displaytype" : "kilobytes",
      "im.name" : "f5-ramcache-size-all-misses",
      "name" : "/Anotherpartition/awebaccelerationprofile"
    },
    "value" : "1430690.0"
  }, {
    "tags" : {
      "im.dstype" : "counter",
      "im.dstype.displaytype" : "kilobytes",
      "im.name" : "f5-ramcache-size-hits",
      "name" : "/Anotherpartition/awebaccelerationprofile"
    },
    "value" : "1.27812E10"
  } ]
}
