{
  "command" : "f5-rest-net-self",
  "metrics" : [ {
    "tags" : {
      "address" : "10.245.0.10/24",
      "im.name" : "f5-port-lockdown-not-none",
      "name" : "/Common/EXTERNAL_floating_ip"
    },
    "value" : {
      "value" : "true"
    }
  }, {
    "tags" : {
      "im.name" : "network-interface-ipv4-address",
      "name" : "/Common/EXTERNAL_floating_ip"
    },
    "value" : {
      "value" : "10.245.0.10"
    }
  }, {
    "tags" : {
      "display-name" : "Self IP addresses",
      "im.identity-tags" : "name",
      "im.name" : "network-interface-ipv4-liveconfig",
      "live-config" : "true",
      "name" : "/Common/EXTERNAL_self_ip"
    },
    "value" : {
      "value" : "10.245.0.11/24"
    }
  }, {
    "tags" : {
      "display-name" : "Self IP addresses",
      "im.identity-tags" : "name",
      "im.name" : "network-interface-ipv4-liveconfig",
      "live-config" : "true",
      "name" : "/Common/EXTERNAL_self_ip_allow_https"
    },
    "value" : {
      "value" : "10.245.0.249/24"
    }
  }, {
    "tags" : {
      "display-name" : "Self IP addresses",
      "im.identity-tags" : "name",
      "im.name" : "network-interface-ipv4-liveconfig",
      "live-config" : "true",
      "name" : "/Common/EXTERNAL_self_ip_allow_no_tcp"
    },
    "value" : {
      "value" : "10.245.0.248/24"
    }
  }, {
    "tags" : {
      "address" : "10.245.0.11/24",
      "im.name" : "f5-port-lockdown-not-none",
      "name" : "/Common/EXTERNAL_self_ip"
    },
    "value" : {
      "value" : "true"
    }
  }, {
    "tags" : {
      "address" : "10.245.0.242/24",
      "im.name" : "f5-port-lockdown-not-none",
      "name" : "/Common/EXTERNAL_self_ip_allow_custom_and_default"
    },
    "value" : {
      "value" : "true"
    }
  }, {
    "tags" : {
      "address" : "10.245.0.246/24",
      "im.name" : "f5-port-lockdown-not-none",
      "name" : "/Common/EXTERNAL_self_ip_allow_custom_multiple"
    },
    "value" : {
      "value" : "true"
    }
  }, {
    "tags" : {
      "display-name" : "Self IP addresses",
      "im.identity-tags" : "name",
      "im.name" : "network-interface-ipv4-liveconfig",
      "live-config" : "true",
      "name" : "/Common/EXTERNAL_self_ip_allow_all_tcp"
    },
    "value" : {
      "value" : "10.245.0.250/24"
    }
  }, {
    "tags" : {
      "display-name" : "Self IP addresses",
      "im.identity-tags" : "name",
      "im.name" : "network-interface-ipv4-liveconfig",
      "live-config" : "true",
      "name" : "/Common/EXTERNAL_self_ip_allow_custom_multiple"
    },
    "value" : {
      "value" : "10.245.0.246/24"
    }
  }, {
    "tags" : {
      "address" : "10.245.0.247/24",
      "im.name" : "f5-port-lockdown-not-none",
      "name" : "/Common/EXTERNAL_self_ip_allow_no_udp"
    },
    "value" : {
      "value" : "false"
    }
  }, {
    "tags" : {
      "address" : "10.245.0.248/24",
      "im.name" : "f5-port-lockdown-not-none",
      "name" : "/Common/EXTERNAL_self_ip_allow_no_tcp"
    },
    "value" : {
      "value" : "true"
    }
  }, {
    "tags" : {
      "address" : "10.245.0.249/24",
      "im.name" : "f5-port-lockdown-not-none",
      "name" : "/Common/EXTERNAL_self_ip_allow_https"
    },
    "value" : {
      "value" : "true"
    }
  }, {
    "tags" : {
      "address" : "10.245.0.250/24",
      "im.name" : "f5-port-lockdown-not-none",
      "name" : "/Common/EXTERNAL_self_ip_allow_all_tcp"
    },
    "value" : {
      "value" : "true"
    }
  }, {
    "tags" : {
      "address" : "10.245.0.251/24",
      "im.name" : "f5-port-lockdown-not-none",
      "name" : "/Common/EXTERNAL_self_ip_allow_custom_ssh"
    },
    "value" : {
      "value" : "true"
    }
  }, {
    "tags" : {
      "address" : "10.245.0.253/24",
      "im.name" : "f5-port-lockdown-not-none",
      "name" : "/Common/EXTERNAL_self_ip_allow_none"
    },
    "value" : {
      "value" : "false"
    }
  }, {
    "tags" : {
      "address" : "10.245.0.254/24",
      "im.name" : "f5-port-lockdown-not-none",
      "name" : "/Common/EXTERNAL_self_ip_allow_all"
    },
    "value" : {
      "value" : "true"
    }
  }, {
    "tags" : {
      "address" : "10.245.50.1/24",
      "im.name" : "f5-port-lockdown-not-none",
      "name" : "/Common/HA"
    },
    "value" : {
      "value" : "true"
    }
  }, {
    "tags" : {
      "address" : "192.168.5.5%1/24",
      "im.name" : "f5-port-lockdown-not-none",
      "name" : "/RouteDomain1/RD1_self_ip"
    },
    "value" : {
      "value" : "true"
    }
  }, {
    "tags" : {
      "im.name" : "network-interface-ipv4-address",
      "name" : "/Common/EXTERNAL_self_ip"
    },
    "value" : {
      "value" : "10.245.0.11"
    }
  }, {
    "tags" : {
      "im.name" : "network-interface-ipv4-address",
      "name" : "/Common/EXTERNAL_self_ip_allow_all_tcp"
    },
    "value" : {
      "value" : "10.245.0.250"
    }
  }, {
    "tags" : {
      "im.name" : "network-interface-ipv4-address",
      "name" : "/Common/EXTERNAL_self_ip_allow_custom_multiple"
    },
    "value" : {
      "value" : "10.245.0.246"
    }
  }, {
    "tags" : {
      "im.name" : "network-interface-ipv4-address",
      "name" : "/Common/EXTERNAL_self_ip_allow_no_udp"
    },
    "value" : {
      "value" : "10.245.0.247"
    }
  }, {
    "tags" : {
      "im.name" : "network-interface-ipv4-address",
      "name" : "/Common/EXTERNAL_self_ip_allow_none"
    },
    "value" : {
      "value" : "10.245.0.253"
    }
  }, {
    "tags" : {
      "im.name" : "network-interface-ipv4-address",
      "name" : "/Common/HA"
    },
    "value" : {
      "value" : "10.245.50.1"
    }
  }, {
    "tags" : {
      "im.name" : "network-interface-ipv4-subnet",
      "name" : "/Common/EXTERNAL_floating_ip"
    },
    "value" : {
      "value" : "24"
    }
  }, {
    "tags" : {
      "im.name" : "network-interface-ipv4-subnet",
      "name" : "/Common/EXTERNAL_self_ip"
    },
    "value" : {
      "value" : "24"
    }
  }, {
    "tags" : {
      "im.name" : "network-interface-ipv4-subnet",
      "name" : "/Common/EXTERNAL_self_ip_allow_all"
    },
    "value" : {
      "value" : "24"
    }
  }, {
    "tags" : {
      "im.name" : "network-interface-ipv4-subnet",
      "name" : "/Common/EXTERNAL_self_ip_allow_custom_and_default"
    },
    "value" : {
      "value" : "24"
    }
  }, {
    "tags" : {
      "im.name" : "network-interface-ipv4-subnet",
      "name" : "/Common/EXTERNAL_self_ip_allow_custom_multiple"
    },
    "value" : {
      "value" : "24"
    }
  }, {
    "tags" : {
      "im.name" : "network-interface-ipv4-subnet",
      "name" : "/Common/EXTERNAL_self_ip_allow_custom_ssh"
    },
    "value" : {
      "value" : "24"
    }
  }, {
    "tags" : {
      "im.name" : "network-interface-ipv4-subnet",
      "name" : "/Common/EXTERNAL_self_ip_allow_https"
    },
    "value" : {
      "value" : "24"
    }
  }, {
    "tags" : {
      "im.name" : "network-interface-ipv4-subnet",
      "name" : "/Common/EXTERNAL_self_ip_allow_no_tcp"
    },
    "value" : {
      "value" : "24"
    }
  }, {
    "tags" : {
      "im.name" : "network-interface-ipv4-subnet",
      "name" : "/Common/EXTERNAL_self_ip_allow_no_udp"
    },
    "value" : {
      "value" : "24"
    }
  }, {
    "tags" : {
      "display-name" : "Self IP addresses",
      "im.identity-tags" : "name",
      "im.name" : "network-interface-ipv4-liveconfig",
      "live-config" : "true",
      "name" : "/Common/EXTERNAL_floating_ip"
    },
    "value" : {
      "value" : "10.245.0.10/24"
    }
  }, {
    "tags" : {
      "display-name" : "Self IP addresses",
      "im.identity-tags" : "name",
      "im.name" : "network-interface-ipv4-liveconfig",
      "live-config" : "true",
      "name" : "/Common/EXTERNAL_self_ip_allow_all"
    },
    "value" : {
      "value" : "10.245.0.254/24"
    }
  }, {
    "tags" : {
      "display-name" : "Self IP addresses",
      "im.identity-tags" : "name",
      "im.name" : "network-interface-ipv4-liveconfig",
      "live-config" : "true",
      "name" : "/Common/EXTERNAL_self_ip_allow_custom_ssh"
    },
    "value" : {
      "value" : "10.245.0.251/24"
    }
  }, {
    "tags" : {
      "display-name" : "Self IP addresses",
      "im.identity-tags" : "name",
      "im.name" : "network-interface-ipv4-liveconfig",
      "live-config" : "true",
      "name" : "/Common/EXTERNAL_self_ip_allow_no_udp"
    },
    "value" : {
      "value" : "10.245.0.247/24"
    }
  }, {
    "tags" : {
      "display-name" : "Self IP addresses",
      "im.identity-tags" : "name",
      "im.name" : "network-interface-ipv4-liveconfig",
      "live-config" : "true",
      "name" : "/Common/EXTERNAL_self_ip_allow_none"
    },
    "value" : {
      "value" : "10.245.0.253/24"
    }
  }, {
    "tags" : {
      "display-name" : "Self IP addresses",
      "im.identity-tags" : "name",
      "im.name" : "network-interface-ipv4-liveconfig",
      "live-config" : "true",
      "name" : "/Common/HA"
    },
    "value" : {
      "value" : "10.245.50.1/24"
    }
  }, {
    "tags" : {
      "display-name" : "Self IP addresses",
      "im.identity-tags" : "name",
      "im.name" : "network-interface-ipv4-liveconfig",
      "live-config" : "true",
      "name" : "/RouteDomain1/RD1_self_ip"
    },
    "value" : {
      "value" : "192.168.5.5%1/24"
    }
  }, {
    "tags" : {
      "im.name" : "network-interface-ipv4-address",
      "name" : "/Common/EXTERNAL_self_ip_allow_all"
    },
    "value" : {
      "value" : "10.245.0.254"
    }
  }, {
    "tags" : {
      "im.name" : "network-interface-ipv4-address",
      "name" : "/Common/EXTERNAL_self_ip_allow_custom_and_default"
    },
    "value" : {
      "value" : "10.245.0.242"
    }
  }, {
    "tags" : {
      "im.name" : "network-interface-ipv4-address",
      "name" : "/Common/EXTERNAL_self_ip_allow_custom_ssh"
    },
    "value" : {
      "value" : "10.245.0.251"
    }
  }, {
    "tags" : {
      "im.name" : "network-interface-ipv4-address",
      "name" : "/Common/EXTERNAL_self_ip_allow_https"
    },
    "value" : {
      "value" : "10.245.0.249"
    }
  }, {
    "tags" : {
      "im.name" : "network-interface-ipv4-address",
      "name" : "/Common/EXTERNAL_self_ip_allow_no_tcp"
    },
    "value" : {
      "value" : "10.245.0.248"
    }
  }, {
    "tags" : {
      "im.name" : "network-interface-ipv4-address",
      "name" : "/RouteDomain1/RD1_self_ip"
    },
    "value" : {
      "value" : "192.168.5.5"
    }
  }, {
    "tags" : {
      "im.name" : "network-interface-ipv4-subnet",
      "name" : "/Common/EXTERNAL_self_ip_allow_all_tcp"
    },
    "value" : {
      "value" : "24"
    }
  }, {
    "tags" : {
      "im.name" : "network-interface-ipv4-subnet",
      "name" : "/Common/EXTERNAL_self_ip_allow_none"
    },
    "value" : {
      "value" : "24"
    }
  }, {
    "tags" : {
      "im.name" : "network-interface-ipv4-subnet",
      "name" : "/Common/HA"
    },
    "value" : {
      "value" : "24"
    }
  }, {
    "tags" : {
      "im.name" : "network-interface-ipv4-subnet",
      "name" : "/RouteDomain1/RD1_self_ip"
    },
    "value" : {
      "value" : "24"
    }
  }, {
    "tags" : {
      "display-name" : "Self IP addresses",
      "im.identity-tags" : "name",
      "im.name" : "network-interface-ipv4-liveconfig",
      "live-config" : "true",
      "name" : "/Common/EXTERNAL_self_ip_allow_custom_and_default"
    },
    "value" : {
      "value" : "10.245.0.242/24"
    }
  } ]
}
