{
  "command" : "panos-show-url-cloud-status",
  "metrics" : [ {
    "tags" : {
      "display-name" : "URL Cloud Connected?",
      "im.dstype" : "gauge",
      "im.dstype.displaytype" : "boolean",
      "im.metric-type" : "ts",
      "im.name" : "url-filtering-cloud-connected",
      "im.step" : "3600",
      "live-config" : "true"
    },
    "value" : "0.0"
  } ]
}
