{
  "command" : "panos-show-ntp",
  "metrics" : [ {
    "tags" : {
      "display-name" : "NTP Servers - State",
      "im.dstype.displaytype" : "state",
      "im.identity-tags" : "name",
      "im.name" : "ntp-server-state",
      "live-config" : "true",
      "name" : "1.2.3.1"
    },
    "value" : "0.0"
  }, {
    "tags" : {
      "display-name" : "NTP Servers - State",
      "im.dstype.displaytype" : "state",
      "im.identity-tags" : "name",
      "im.name" : "ntp-server-state",
      "live-config" : "true",
      "name" : "2.uk.pool.ntp.org"
    },
    "value" : "1.0"
  } ]
}
