{
  "command" : "panos-show-system-setting-ssl-decrypt-memory-detail",
  "metrics" : [ {
    "tags" : {
      "display-name" : "Memory - Free",
      "im.dstype" : "gauge",
      "im.dstype.displaytype" : "kilobytes",
      "im.identity-tags" : "name",
      "im.metric-type" : "ts",
      "im.name" : "memory-free-kbytes",
      "im.step" : "60",
      "live-config" : "true",
      "name" : "SSL Proxy Memory"
    },
    "value" : "146208.0"
  }, {
    "tags" : {
      "display-name" : "Memory - Total",
      "im.dstype" : "gauge",
      "im.dstype.displaytype" : "kilobytes",
      "im.identity-tags" : "name",
      "im.metric-type" : "ts",
      "im.name" : "memory-total-kbytes",
      "im.step" : "60",
      "live-config" : "true",
      "name" : "SSL Proxy Memory"
    },
    "value" : "147424.0"
  }, {
    "tags" : {
      "display-name" : "Memory Usage",
      "im.dstype" : "gauge",
      "im.dstype.displaytype" : "percentage",
      "im.identity-tags" : "name",
      "im.metric-type" : "ts",
      "im.name" : "memory-usage",
      "im.step" : "60",
      "live-config" : "true",
      "name" : "SSL Proxy Memory"
    },
    "value" : "0.8248317777295421"
  } ]
}
