{
  "command" : "panos-show-jobs-all",
  "metrics" : [ {
    "tags" : {
      "im.name" : "jobs"
    },
    "value" : [ {
      "id" : "1",
      "status" : "FIN",
      "result" : "OK"
    }, {
      "id" : "2",
      "status" : "FIN",
      "result" : "OK"
    } ]
  } ]
}
