{
  "command" : "linux-proc-uptime",
  "metrics" : [ {
    "tags" : {
      "display-name" : "Uptime",
      "im.dstype" : "gauge",
      "im.dstype.displaytype" : "duration",
      "im.metric-type" : "ts",
      "im.name" : "uptime-seconds",
      "im.step" : "300",
      "live-config" : "true"
    },
    "values" : [ "0.00", "300.00", "600.00", "900.00", "1200.00", "1500.00", "1800.00", "2100.00", "2400.00", "2700.00", "3000.00", "3300.00", "3600.00", "3900.00", "4200.00", "4500.00", "4800.00", "5100.00", "5400.00", "5700.00", "6000.00", "6300.00", "6600.00", "6900.00", "7200.00", "7500.00", "7800.00", "8100.00", "8400.00", "8700.00", "9000.00", "9300.00", "9600.00", "9900.00", "10200.00", "10500.00", "10800.00", "11100.00", "11400.00", "11700.00", "12000.00", "12300.00", "12600.00", "12900.00", "13200.00", "13500.00", "13800.00", "14100.00", "14400.00", "14700.00", "15000.00", "15300.00", "15600.00", "15900.00", "16200.00", "16500.00", "16800.00", "17100.00", "17400.00", "17700.00", "18000.00", "18300.00", "18600.00", "18900.00", "19200.00", "19500.00", "19800.00", "20100.00", "20400.00", "20700.00", "21000.00", "21300.00", "21600.00", "21900.00", "22200.00", "22500.00", "22800.00", "23100.00", "23400.00", "23700.00", "24000.00", "24300.00", "24600.00", "24900.00", "25200.00", "25500.00", "25800.00", "26100.00", "26400.00", "26700.00", "27000.00", "27300.00", "27600.00", "27900.00", "28200.00", "28500.00", "28800.00", "29100.00", "29400.00", "29700.00", "30000.00", "30300.00", "30600.00", "30900.00", "31200.00", "31500.00", "31800.00", "32100.00", "32400.00", "32700.00", "33000.00", "33300.00", "33600.00", "33900.00", "34200.00", "34500.00", "34800.00", "35100.00", "35400.00", "35700.00", "36000.00", "36300.00", "36600.00", "36900.00", "37200.00", "37500.00", "37800.00", "38100.00", "38400.00", "38700.00", "39000.00", "39300.00", "39600.00", "39900.00", "40200.00", "40500.00", "40800.00", "41100.00", "41400.00", "41700.00", "42000.00", "42300.00", "42600.00", "42900.00", "43200.00", "43500.00", "43800.00", "44100.00", "44400.00", "44700.00", "45000.00", "45300.00", "45600.00", "45900.00", "46200.00", "46500.00", "46800.00", "47100.00", "47400.00", "47700.00", "48000.00", "48300.00", "48600.00", "48900.00", "49200.00", "49500.00", "49800.00", "50100.00", "50400.00", "50700.00", "51000.00", "51300.00", "51600.00", "51900.00", "52200.00", "52500.00", "52800.00", "53100.00", "53400.00", "53700.00", "54000.00", "54300.00", "54600.00", "54900.00", "55200.00", "55500.00", "55800.00", "56100.00", "56400.00", "56700.00", "57000.00", "57300.00", "57600.00", "57900.00", "58200.00", "58500.00", "58800.00", "59100.00", "59400.00", "59700.00", "60000.00", "60300.00", "60600.00", "60900.00", "61200.00", "61500.00", "61800.00", "62100.00", "62400.00", "62700.00", "63000.00", "63300.00", "63600.00", "63900.00", "64200.00", "64500.00", "64800.00", "65100.00", "65400.00", "65700.00", "66000.00", "66300.00", "66600.00", "66900.00", "67200.00", "67500.00", "67800.00", "68100.00", "68400.00", "68700.00", "69000.00", "69300.00", "69600.00", "69900.00", "70200.00", "70500.00", "70800.00", "71100.00", "71400.00", "71700.00", "72000.00", "72300.00", "72600.00", "72900.00", "73200.00", "73500.00", "73800.00", "74100.00", "74400.00", "74700.00", "75000.00", "75300.00", "75600.00", "75900.00", "76200.00", "76500.00", "76800.00", "77100.00", "77400.00", "77700.00", "78000.00", "78300.00", "78600.00", "78900.00", "79200.00", "79500.00", "79800.00", "80100.00", "80400.00", "80700.00", "81000.00", "81300.00", "81600.00", "81900.00", "82200.00", "82500.00", "82800.00", "83100.00", "83400.00", "83700.00", "84000.00", "84300.00", "84600.00", "84900.00", "85200.00", "85500.00", "85800.00", "86100.00", "86400.00", "86700.00", "87000.00", "87300.00", "87600.00", "87900.00", "88200.00", "88500.00", "88800.00", "89100.00", "89400.00", "89700.00", "90000.00", "90300.00", "90600.00", "90900.00", "91200.00", "91500.00", "91800.00", "92100.00", "92400.00", "92700.00", "93000.00", "93300.00", "93600.00", "93900.00", "94200.00", "94500.00", "94800.00", "95100.00", "95400.00", "95700.00", "96000.00", "96300.00", "96600.00", "96900.00", "97200.00", "97500.00", "97800.00", "98100.00", "98400.00", "98700.00", "99000.00", "99300.00", "99600.00", "99900.00", "100200.00", "100500.00", "100800.00", "101100.00", "101400.00", "101700.00", "102000.00", "102300.00", "102600.00", "102900.00", "103200.00", "103500.00", "103800.00", "104100.00", "104400.00", "104700.00", "105000.00", "105300.00", "105600.00", "105900.00", "106200.00", "106500.00", "106800.00", "107100.00", "107400.00", "107700.00", "108000.00", "108300.00", "108600.00", "108900.00", "109200.00", "109500.00", "109800.00", "110100.00", "110400.00", "110700.00", "111000.00", "111300.00", "111600.00", "111900.00", "112200.00", "112500.00", "112800.00", "113100.00", "113400.00", "113700.00", "114000.00", "114300.00", "114600.00", "114900.00", "115200.00", "115500.00", "115800.00", "116100.00", "116400.00", "116700.00", "117000.00", "117300.00", "117600.00", "117900.00", "118200.00", "118500.00", "118800.00", "119100.00", "119400.00", "119700.00", "120000.00", "120300.00", "120600.00", "120900.00", "121200.00", "121500.00", "121800.00", "122100.00", "122400.00", "122700.00", "123000.00", "123300.00", "123600.00", "123900.00", "124200.00", "124500.00", "124800.00", "125100.00", "125400.00", "125700.00", "126000.00", "126300.00", "126600.00", "126900.00", "127200.00", "127500.00", "127800.00", "128100.00", "128400.00", "128700.00", "129000.00", "129300.00", "129600.00", "129900.00", "130200.00", "130500.00", "130800.00", "131100.00", "131400.00", "131700.00", "132000.00", "132300.00", "132600.00", "132900.00", "133200.00", "133500.00", "133800.00", "134100.00", "134400.00", "134700.00", "135000.00", "135300.00", "135600.00", "135900.00", "136200.00", "136500.00", "136800.00", "137100.00", "137400.00", "137700.00", "138000.00", "138300.00", "138600.00", "138900.00", "139200.00", "139500.00", "139800.00", "140100.00", "140400.00", "140700.00", "141000.00", "141300.00", "141600.00", "141900.00", "142200.00", "142500.00", "142800.00", "143100.00", "143400.00", "143700.00", "144000.00", "144300.00", "144600.00", "144900.00", "145200.00", "145500.00", "145800.00", "146100.00", "146400.00", "146700.00", "147000.00", "147300.00", "147600.00", "147900.00", "148200.00", "148500.00", "148800.00", "149100.00", "149400.00", "149700.00", "150000.00", "150300.00", "150600.00", "150900.00", "151200.00", "151500.00", "151800.00", "152100.00", "152400.00", "152700.00", "153000.00", "153300.00", "153600.00", "153900.00", "154200.00", "154500.00", "154800.00", "155100.00", "155400.00", "155700.00", "156000.00", "156300.00", "156600.00", "156900.00", "157200.00", "157500.00", "157800.00", "158100.00", "158400.00", "158700.00", "159000.00", "159300.00", "159600.00", "159900.00", "160200.00", "160500.00", "160800.00", "161100.00", "161400.00", "161700.00", "162000.00", "162300.00", "162600.00", "162900.00", "163200.00", "163500.00", "163800.00", "164100.00", "164400.00", "164700.00", "165000.00", "165300.00", "165600.00", "165900.00", "166200.00", "166500.00", "166800.00", "167100.00", "167400.00", "167700.00", "168000.00", "168300.00", "168600.00", "168900.00", "169200.00", "169500.00", "169800.00", "170100.00", "170400.00", "170700.00", "171000.00", "171300.00", "171600.00", "171900.00", "172200.00", "172500.00", "172800.00", "173100.00", "173400.00", "173700.00", "174000.00", "174300.00", "174600.00", "174900.00", "175200.00", "175500.00", "175800.00", "176100.00", "176400.00", "176700.00", "177000.00", "177300.00", "177600.00", "177900.00", "178200.00", "178500.00", "178800.00", "179100.00", "179400.00", "179700.00", "180000.00" ]
  } ]
}
