{
  "command" : "f5-rest-mgmt-tm-ltm-profile-http",
  "metrics" : [ {
    "tags" : {
      "im.dstype.displaytype" : "boolean",
      "im.name" : "f5-fallbackhost-used",
      "name" : "/Common/http"
    },
    "value" : {
      "value" : "false"
    }
  }, {
    "tags" : {
      "im.dstype.displaytype" : "boolean",
      "im.name" : "f5-fallbackhost-used",
      "name" : "/Common/http-explicit"
    },
    "value" : {
      "value" : "false"
    }
  }, {
    "tags" : {
      "im.dstype.displaytype" : "boolean",
      "im.name" : "f5-fallbackhost-used",
      "name" : "/Common/http-transparent"
    },
    "value" : {
      "value" : "false"
    }
  }, {
    "tags" : {
      "im.dstype.displaytype" : "boolean",
      "im.name" : "f5-fallbackhost-used",
      "name" : "/Common/http_profile_with_fallback_host"
    },
    "value" : {
      "value" : "true"
    }
  } ]
}
