{
  "command" : "f5-rest-mgmt-tm-ltm-snatpool",
  "metrics" : [ {
    "tags" : {
      "im.name" : "lb-snatpool-limit",
      "name" : "/Common/SNATTest"
    },
    "value" : "64000.0"
  }, {
    "tags" : {
      "im.name" : "lb-snatpool-limit",
      "name" : "/Common/SNAT_Pool1"
    },
    "value" : "192000.0"
  }, {
    "tags" : {
      "im.name" : "lb-snatpool-limit",
      "name" : "/Common/SNAT_Pool2"
    },
    "value" : "192000.0"
  } ]
}
