{
  "command" : "f5-tmsh-show-sys-license-detail-show-sys-tmm-info-global",
  "metrics" : [ {
    "tags" : {
      "display-name" : "License Limitation",
      "im.dstype" : "gauge",
      "im.dstype.displaytype" : "number",
      "im.identity-tags" : "name",
      "im.metric-type" : "ts",
      "im.name" : "license-elements-limit",
      "im.step" : "300",
      "live-config" : "true",
      "name" : "Maximum Compression Throughput (Mbps)"
    },
    "values" : [ "50.0" ]
  }, {
    "tags" : {
      "display-name" : "License Limitation",
      "im.dstype" : "gauge",
      "im.dstype.displaytype" : "number",
      "im.identity-tags" : "name",
      "im.metric-type" : "ts",
      "im.name" : "license-elements-limit",
      "im.step" : "300",
      "live-config" : "true",
      "name" : "SSL TPS"
    },
    "values" : [ "1000.0" ]
  }, {
    "tags" : {
      "im.dstype" : "gauge",
      "im.metric-type" : "ts",
      "im.name" : "f5-service-check",
      "im.step" : "300"
    },
    "values" : [ "0.0" ]
  } ]
}
