{
  "command" : "debug-status",
  "metrics" : [ {
    "tags" : {
      "im.dstype" : "gauge",
      "im.metric-type" : "ts",
      "im.name" : "debug-status",
      "im.step" : "300",
      "name" : "firewall kernel debug - APPImodule"
    },
    "value" : "0.0"
  }, {
    "tags" : {
      "im.dstype" : "gauge",
      "im.metric-type" : "ts",
      "im.name" : "debug-status",
      "im.step" : "300",
      "name" : "firewall kernel debug - BOAmodule"
    },
    "value" : "0.0"
  }, {
    "tags" : {
      "im.dstype" : "gauge",
      "im.metric-type" : "ts",
      "im.name" : "debug-status",
      "im.step" : "300",
      "name" : "firewall kernel debug - CImodule"
    },
    "value" : "0.0"
  }, {
    "tags" : {
      "im.dstype" : "gauge",
      "im.metric-type" : "ts",
      "im.name" : "debug-status",
      "im.step" : "300",
      "name" : "firewall kernel debug - CPASmodule"
    },
    "value" : "0.0"
  }, {
    "tags" : {
      "im.dstype" : "gauge",
      "im.metric-type" : "ts",
      "im.name" : "debug-status",
      "im.step" : "300",
      "name" : "firewall kernel debug - ICAP_CLIENTmodule"
    },
    "value" : "0.0"
  }, {
    "tags" : {
      "im.dstype" : "gauge",
      "im.metric-type" : "ts",
      "im.name" : "debug-status",
      "im.step" : "300",
      "name" : "firewall kernel debug - NRBmodule"
    },
    "value" : "0.0"
  }, {
    "tags" : {
      "im.dstype" : "gauge",
      "im.metric-type" : "ts",
      "im.name" : "debug-status",
      "im.step" : "300",
      "name" : "firewall kernel debug - RAD_KERNELmodule"
    },
    "value" : "0.0"
  }, {
    "tags" : {
      "im.dstype" : "gauge",
      "im.metric-type" : "ts",
      "im.name" : "debug-status",
      "im.step" : "300",
      "name" : "firewall kernel debug - SFTmodule"
    },
    "value" : "0.0"
  }, {
    "tags" : {
      "im.dstype" : "gauge",
      "im.metric-type" : "ts",
      "im.name" : "debug-status",
      "im.step" : "300",
      "name" : "firewall kernel debug - SGENmodule"
    },
    "value" : "0.0"
  }, {
    "tags" : {
      "im.dstype" : "gauge",
      "im.metric-type" : "ts",
      "im.name" : "debug-status",
      "im.step" : "300",
      "name" : "firewall kernel debug - UCmodule"
    },
    "value" : "0.0"
  }, {
    "tags" : {
      "im.dstype" : "gauge",
      "im.metric-type" : "ts",
      "im.name" : "debug-status",
      "im.step" : "300",
      "name" : "firewall kernel debug - VPNmodule"
    },
    "value" : "0.0"
  }, {
    "tags" : {
      "im.dstype" : "gauge",
      "im.metric-type" : "ts",
      "im.name" : "debug-status",
      "im.step" : "300",
      "name" : "firewall kernel debug - WSISmodule"
    },
    "value" : "0.0"
  }, {
    "tags" : {
      "im.dstype" : "gauge",
      "im.metric-type" : "ts",
      "im.name" : "debug-status",
      "im.step" : "300",
      "name" : "firewall kernel debug - WS_SIPmodule"
    },
    "value" : "0.0"
  }, {
    "tags" : {
      "im.dstype" : "gauge",
      "im.metric-type" : "ts",
      "im.name" : "debug-status",
      "im.step" : "300",
      "name" : "firewall kernel debug - WSmodule"
    },
    "value" : "0.0"
  }, {
    "tags" : {
      "im.dstype" : "gauge",
      "im.metric-type" : "ts",
      "im.name" : "debug-status",
      "im.step" : "300",
      "name" : "firewall kernel debug - bufferSize"
    },
    "value" : "1.0"
  }, {
    "tags" : {
      "im.dstype" : "gauge",
      "im.metric-type" : "ts",
      "im.name" : "debug-status",
      "im.step" : "300",
      "name" : "firewall kernel debug - cmi_loadermodule"
    },
    "value" : "0.0"
  }, {
    "tags" : {
      "im.dstype" : "gauge",
      "im.metric-type" : "ts",
      "im.name" : "debug-status",
      "im.step" : "300",
      "name" : "firewall kernel debug - dlpkmodule"
    },
    "value" : "0.0"
  }, {
    "tags" : {
      "im.dstype" : "gauge",
      "im.metric-type" : "ts",
      "im.name" : "debug-status",
      "im.step" : "300",
      "name" : "firewall kernel debug - dlpukmodule"
    },
    "value" : "0.0"
  }, {
    "tags" : {
      "im.dstype" : "gauge",
      "im.metric-type" : "ts",
      "im.name" : "debug-status",
      "im.step" : "300",
      "name" : "firewall kernel debug - fwmodule"
    },
    "value" : "1.0"
  }, {
    "tags" : {
      "im.dstype" : "gauge",
      "im.metric-type" : "ts",
      "im.name" : "debug-status",
      "im.step" : "300",
      "name" : "firewall kernel debug - gtpmodule"
    },
    "value" : "0.0"
  }, {
    "tags" : {
      "im.dstype" : "gauge",
      "im.metric-type" : "ts",
      "im.name" : "debug-status",
      "im.step" : "300",
      "name" : "firewall kernel debug - h323module"
    },
    "value" : "0.0"
  }, {
    "tags" : {
      "im.dstype" : "gauge",
      "im.metric-type" : "ts",
      "im.name" : "debug-status",
      "im.step" : "300",
      "name" : "firewall kernel debug - kissflowmodule"
    },
    "value" : "0.0"
  }, {
    "tags" : {
      "im.dstype" : "gauge",
      "im.metric-type" : "ts",
      "im.name" : "debug-status",
      "im.step" : "300",
      "name" : "firewall kernel debug - kissmodule"
    },
    "value" : "1.0"
  }, {
    "tags" : {
      "im.dstype" : "gauge",
      "im.metric-type" : "ts",
      "im.name" : "debug-status",
      "im.step" : "300",
      "name" : "firewall kernel debug - multikmodule"
    },
    "value" : "0.0"
  }, {
    "tags" : {
      "im.dstype" : "gauge",
      "im.metric-type" : "ts",
      "im.name" : "debug-status",
      "im.step" : "300",
      "name" : "tcpdump"
    },
    "value" : "1.0"
  } ]
}
