{
  "command" : "chkp-os-file-md5sum",
  "metrics" : [ {
    "tags" : {
      "im.metric-type" : "runtime",
      "im.name" : "file-md5sum",
      "path" : "/etc/grub.conf"
    },
    "value" : {
      "value" : "30b27100970896258448c6fce4b230fb"
    }
  }, {
    "tags" : {
      "im.metric-type" : "runtime",
      "im.name" : "file-md5sum",
      "path" : "/etc/modprobe.conf"
    },
    "value" : {
      "value" : "aaaab8a97402908d45131bf717342a9b"
    }
  }, {
    "tags" : {
      "im.metric-type" : "runtime",
      "im.name" : "file-md5sum",
      "path" : "/etc/rc.local"
    },
    "value" : {
      "value" : "c4fb01aba0e456db5b8afc644a720276"
    }
  }, {
    "tags" : {
      "im.metric-type" : "runtime",
      "im.name" : "file-md5sum",
      "path" : "/etc/rc.sysinit"
    },
    "value" : {
      "value" : "04c833ce192db67f2ffa859896587ee7"
    }
  }, {
    "tags" : {
      "im.metric-type" : "runtime",
      "im.name" : "file-md5sum",
      "path" : "/etc/resolv.conf"
    },
    "value" : {
      "value" : "6321d774020fbf86a3a5a5d33d44caa5"
    }
  }, {
    "tags" : {
      "im.metric-type" : "runtime",
      "im.name" : "file-md5sum",
      "path" : "/etc/sysctl.conf"
    },
    "value" : {
      "value" : "f198a169fa48f0d46c389cc430ac3d86"
    }
  }, {
    "tags" : {
      "im.metric-type" : "runtime",
      "im.name" : "file-md5sum",
      "path" : "/etc/syslog.conf"
    },
    "value" : {
      "value" : "21979abb37a44b985540c70b41bc40ab"
    }
  }, {
    "tags" : {
      "im.metric-type" : "runtime",
      "im.name" : "file-md5sum",
      "path" : "/opt/CPsuite-R77/fw1/conf/updates.def"
    },
    "value" : {
      "value" : "8decc6f151846976c5c257c381c1866a"
    }
  } ]
}
