{
  "command" : "policy-fingerprint",
  "metrics" : [ {
    "tags" : {
      "im.metric-type" : "runtime",
      "im.name" : "policy-installed-fingerprint",
      "vs.id" : "0",
      "vs.name" : "lab-CP-VSX1-R7730"
    },
    "value" : {
      "value" : "224e7d82c261e71569bedb6594040750"
    }
  }, {
    "tags" : {
      "im.metric-type" : "runtime",
      "im.name" : "policy-installed-fingerprint",
      "vs.id" : "2",
      "vs.name" : "lab-VS1"
    },
    "value" : {
      "value" : "a111222a0a8fe235b557c1fca17e3279"
    }
  } ]
}
