{
  "command" : "chkp-clish-show_aaa_radius_servers_list",
  "metrics" : [ {
    "tags" : {
      "im.metric-type" : "runtime",
      "im.name" : "radius-servers"
    },
    "value" : [ {
      "host" : "1.1.1.1",
      "timeout" : "3",
      "priority" : "0",
      "port" : "1812"
    }, {
      "port" : "1812",
      "host" : "2.2.2.2",
      "priority" : "1",
      "timeout" : "3"
    } ]
  }, {
    "tags" : {
      "im.metric-type" : "runtime",
      "im.name" : "radius-super-user-id"
    },
    "value" : {
      "value" : "96"
    }
  } ]
}
